Class name,LOC,Comment Percentage,Number Of Children,Depth of inheritance,LCOM,WMC
Buddy,94,0.0,0,0,6,5
BuddyUpdateTocResponse,210,0.0,0,0,64,23
ConfigTocResponse,194,0.0,0,0,32,18
ConnectionLostTocResponse,50,0.0,0,1,1,2
ErrorTocResponse,145,0.0,0,0,18,14
EvilTocResponse,117,0.0,0,0,15,9
FLAPDataFrame,76,0.0,0,1,3,4
FLAPErrorFrame,51,0.0,0,1,0,1
FLAPFrame,119,0.0,6,0,-20,12
FLAPFrameException,51,0.0,0,0,0,0
FLAPFrameFactory,69,0.0,0,0,0,9
FLAPInputFrame,76,0.0,0,1,-2,7
FLAPKeepAliveFrame,56,0.0,0,1,1,2
FLAPSignoffFrame,52,0.0,0,1,0,1
FLAPSignonFrame,90,0.0,0,1,10,9
GenericTocResponse,85,0.0,0,0,15,6
GotoTocResponse,106,0.0,0,0,11,8
Group,100,0.0,0,0,15,8
IMTocResponse,122,0.0,0,0,15,11
JaimConnection,914,0.0,0,0,858,135
JaimEvent,42,0.0,0,0,0,1
JaimEventListener,40,0.0,0,0,0,1
JaimException,51,0.0,2,0,0,0
JaimStateException,44,0.0,0,1,0,0
JaimTimeoutException,45,0.0,0,1,0,0
LoginCompleteTocResponse,50,0.0,0,1,1,2
NickTocResponse,82,0.0,0,0,8,6
SignOnTocResponse,80,0.0,0,0,8,6
TocAddBuddyCommand,67,0.0,0,1,1,4
TocAddDenyCommand,67,0.0,0,1,1,4
TocAddPermitCommand,67,0.0,0,1,1,4
TocCommand,43,0.0,12,0,1,2
TocEvilCommand,61,0.0,0,1,1,4
TocGetInfoCommand,70,0.0,0,1,1,2
TocIMCommand,58,0.0,0,1,1,2
TocInitDoneCommand,50,0.0,0,1,1,2
TocResponse,49,0.0,2,0,1,2
TocResponseFactory,82,0.0,0,0,1,7
TocResponseHandler,44,0.0,0,0,1,2
TocSetAwayCommand,56,0.0,0,1,1,2
TocSetConfigCommand,74,0.0,0,1,1,6
TocSetIdleCommand,53,0.0,0,1,1,2
TocSetInfoCommand,56,0.0,0,1,1,2
TocSignonCommand,63,0.0,0,1,3,3
Utils,143,0.0,0,0,6,26
JaimTest,260,0.0,0,0,30,51
